[+] Containers:
 |- [+] Container: /Game/VehicleTemplate/Maps/AiMap
 |   |- [+] ActorDescs:
 |   |   |- Guid:0CA3C4804E663EE4D9DCF1B297DEB35E BaseClass: NativeClass:/Script/Landscape.LandscapeStreamingProxy Name:LandscapeStreamingProxy_4Z6FJDTUSPCSVRMWCI92HWTVS_126_2_1_0 Label:LandscapeStreamingProxy_2_1_0 SpatiallyLoaded:1 Bounds:IsValid=true, Min=(X=0.000 Y=-12600.000 Z=100.000), Max=(X=12600.000 Y=0.000 Z=189.844) RuntimeGrid:None EditorOnly:0 RuntimeOnly:0 HLODRelevant:1 ListedInSceneOutliner:1 IsMainWorldOnly:0
 |   |   |- Guid:175972DF406CEE96840712907646EF6D BaseClass: NativeClass:/Script/Engine.WorldDataLayers Name:WorldDataLayers Label:WorldDataLayers-1 SpatiallyLoaded:0 Bounds:Invalid RuntimeGrid:None EditorOnly:0 RuntimeOnly:0 HLODRelevant:0 ListedInSceneOutliner:1 IsMainWorldOnly:1
 |   |   |- Guid:21FE67D14BF307735EC29F910BDB4209 BaseClass: NativeClass:/Script/Landscape.LandscapeStreamingProxy Name:LandscapeStreamingProxy_4Z6FJDTUSPCSVRMWCI92HWTVS_126_2_0_0 Label:LandscapeStreamingProxy_2_0_0 SpatiallyLoaded:1 Bounds:IsValid=true, Min=(X=0.000 Y=-25200.000 Z=100.000), Max=(X=12600.000 Y=-12600.000 Z=189.844) RuntimeGrid:None EditorOnly:0 RuntimeOnly:0 HLODRelevant:1 ListedInSceneOutliner:1 IsMainWorldOnly:0
 |   |   |- Guid:24C28FEC42C369818E361EA3BC7F76D1 BaseClass: NativeClass:/Script/Engine.StaticMeshActor Name:StaticMeshActor_0 Label:SM_Cube5 SpatiallyLoaded:1 Bounds:IsValid=true, Min=(X=25010.000 Y=-25130.000 Z=0.000), Max=(X=25110.004 Y=25320.000 Z=300.000) RuntimeGrid:None EditorOnly:0 RuntimeOnly:0 HLODRelevant:1 ListedInSceneOutliner:1 IsMainWorldOnly:0 FolderPath:Landscape FolderGuid:912F765E4714A1DB296369A3E4390900
 |   |   |- Guid:2E39B54E4C98A1875F539A8D4F15FE8B BaseClass: NativeClass:/Script/Landscape.LandscapeStreamingProxy Name:LandscapeStreamingProxy_4Z6FJDTUSPCSVRMWCI92HWTVS_126_1_3_0 Label:LandscapeStreamingProxy_1_3_0 SpatiallyLoaded:1 Bounds:IsValid=true, Min=(X=-12600.000 Y=12600.000 Z=100.000), Max=(X=0.000 Y=25200.000 Z=189.844) RuntimeGrid:None EditorOnly:0 RuntimeOnly:0 HLODRelevant:1 ListedInSceneOutliner:1 IsMainWorldOnly:0
 |   |   |- Guid:3517D5F34F64FE2EBCEFDDAF26899A31 BaseClass: NativeClass:/Script/Landscape.LandscapeStreamingProxy Name:LandscapeStreamingProxy_4Z6FJDTUSPCSVRMWCI92HWTVS_126_0_0_0 Label:LandscapeStreamingProxy_0_0_0 SpatiallyLoaded:1 Bounds:IsValid=true, Min=(X=-25200.000 Y=-25200.000 Z=0.000), Max=(X=-12600.000 Y=-12600.000 Z=200.000) RuntimeGrid:None EditorOnly:0 RuntimeOnly:0 HLODRelevant:1 ListedInSceneOutliner:1 IsMainWorldOnly:0
 |   |   |- Guid:3BD6BFE7465A6B75AD614BBB5179AD8A BaseClass:/Game/Goal/TCPConnection.TCPConnection_C NativeClass:/Script/TcpSocketPlugin.TcpSocketConnection Name:TCPConnection_C_UAID_4CCC6A665BAEA1D801_2027182591 Label:TCPConnection SpatiallyLoaded:1 Bounds:IsValid=true, Min=(X=1050.000 Y=-7330.000 Z=0.000), Max=(X=1050.000 Y=-7330.000 Z=0.000) RuntimeGrid:None EditorOnly:0 RuntimeOnly:0 HLODRelevant:0 ListedInSceneOutliner:1 IsMainWorldOnly:0
 |   |   |- Guid:3C084E8A4A77205EE635E88CF1A29E3F BaseClass: NativeClass:/Script/Foliage.InstancedFoliageActor Name:InstancedFoliageActor_25600_0_-1_0 Label:InstancedFoliageActor_0_-1_0 SpatiallyLoaded:1 Bounds:(Editor:IsValid=true, Min=(X=0.000 Y=-25600.000 Z=0.000), Max=(X=25600.000 Y=0.000 Z=25600.000) Runtime:IsValid=true, Min=(X=-811.840 Y=-25226.444 Z=-601.002), Max=(X=26219.287 Y=1240.178 Z=3903.753)) RuntimeGrid:None EditorOnly:0 RuntimeOnly:0 HLODRelevant:0 ListedInSceneOutliner:1 IsMainWorldOnly:0
 |   |   |- Guid:3E83772A429F7521640AD2BF516668E3 BaseClass: NativeClass:/Script/Landscape.LandscapeStreamingProxy Name:LandscapeStreamingProxy_4Z6FJDTUSPCSVRMWCI92HWTVS_126_0_2_0 Label:LandscapeStreamingProxy_0_2_0 SpatiallyLoaded:1 Bounds:IsValid=true, Min=(X=-25200.000 Y=0.000 Z=100.000), Max=(X=-12600.000 Y=12600.000 Z=189.844) RuntimeGrid:None EditorOnly:0 RuntimeOnly:0 HLODRelevant:1 ListedInSceneOutliner:1 IsMainWorldOnly:0
 |   |   |- Guid:4AEAC28441C79668D0AC2BB2EF6EE6D4 BaseClass: NativeClass:/Script/Landscape.LandscapeStreamingProxy Name:LandscapeStreamingProxy_4Z6FJDTUSPCSVRMWCI92HWTVS_126_1_1_0 Label:LandscapeStreamingProxy_1_1_0 SpatiallyLoaded:1 Bounds:IsValid=true, Min=(X=-12600.000 Y=-12600.000 Z=100.000), Max=(X=0.000 Y=0.000 Z=189.844) RuntimeGrid:None EditorOnly:0 RuntimeOnly:0 HLODRelevant:1 ListedInSceneOutliner:1 IsMainWorldOnly:0
 |   |   |- Guid:4C1B599C4DC428D8656CCB868D7ACF9E BaseClass: NativeClass:/Script/Engine.StaticMeshActor Name:StaticMeshActor_UAID_A4AE111137DC5DFB00_1630210247 Label:SM_SkySphere SpatiallyLoaded:1 Bounds:IsValid=true, Min=(X=-1638400.000 Y=-1638400.000 Z=-1637960.000), Max=(X=1638400.000 Y=1638400.000 Z=1638840.000) RuntimeGrid:None EditorOnly:0 RuntimeOnly:0 HLODRelevant:1 ListedInSceneOutliner:1 IsMainWorldOnly:0 FolderPath:Lighting FolderGuid:602030AD4CB26C050EF7B98FCA62FBCA
 |   |   |- Guid:53E04F8443AFF075AEABADA2F52ECB61 BaseClass: NativeClass:/Script/Foliage.InstancedFoliageActor Name:InstancedFoliageActor_25600_-1_-1_0 Label:InstancedFoliageActor_-1_-1_0 SpatiallyLoaded:1 Bounds:(Editor:IsValid=true, Min=(X=-25600.000 Y=-25600.000 Z=0.000), Max=(X=0.000 Y=0.000 Z=25600.000) Runtime:IsValid=true, Min=(X=-25656.952 Y=-25522.561 Z=-594.608), Max=(X=171.592 Y=1001.275 Z=3779.233)) RuntimeGrid:None EditorOnly:0 RuntimeOnly:0 HLODRelevant:0 ListedInSceneOutliner:1 IsMainWorldOnly:0
 |   |   |- Guid:5A194A174178EB630121408BA4EC60C5 BaseClass: NativeClass:/Script/Landscape.LandscapeStreamingProxy Name:LandscapeStreamingProxy_4Z6FJDTUSPCSVRMWCI92HWTVS_126_2_2_0 Label:LandscapeStreamingProxy_2_2_0 SpatiallyLoaded:1 Bounds:IsValid=true, Min=(X=0.000 Y=0.000 Z=100.000), Max=(X=12600.000 Y=12600.000 Z=189.844) RuntimeGrid:None EditorOnly:0 RuntimeOnly:0 HLODRelevant:1 ListedInSceneOutliner:1 IsMainWorldOnly:0
 |   |   |- Guid:607378B646A64F7C81F01CA67E29118C BaseClass: NativeClass:/Script/Engine.PostProcessVolume Name:PostProcessVolume_0 Label:PostProcessVolume SpatiallyLoaded:0 Bounds:IsValid=true, Min=(X=-12600.000 Y=-12600.000 Z=300.000), Max=(X=-12400.000 Y=-12400.000 Z=500.000) RuntimeGrid:None EditorOnly:0 RuntimeOnly:0 HLODRelevant:0 ListedInSceneOutliner:1 IsMainWorldOnly:0 FolderPath:Lighting FolderGuid:602030AD4CB26C050EF7B98FCA62FBCA
 |   |   |- Guid:682FD3D34BDD37528BB2908FE832E44D BaseClass: NativeClass:/Script/Engine.PlayerStart Name:PlayerStart_1 Label:PlayerStart SpatiallyLoaded:0 Bounds:IsValid=true, Min=(X=-19876.140 Y=-9383.559 Z=246.021), Max=(X=-19743.860 Y=-9276.441 Z=365.848) RuntimeGrid:None EditorOnly:0 RuntimeOnly:0 HLODRelevant:0 ListedInSceneOutliner:1 IsMainWorldOnly:0
 |   |   |- Guid:6B8EC0724678CE0EDE1F5B8EAFB6B115 BaseClass: NativeClass:/Script/Engine.SkyLight Name:SkyLight_1 Label:SkyLight SpatiallyLoaded:0 Bounds:IsValid=true, Min=(X=-12600.000 Y=-12600.000 Z=720.000), Max=(X=-12600.000 Y=-12600.000 Z=720.000) RuntimeGrid:None EditorOnly:0 RuntimeOnly:0 HLODRelevant:0 ListedInSceneOutliner:1 IsMainWorldOnly:0 FolderPath:Lighting FolderGuid:602030AD4CB26C050EF7B98FCA62FBCA
 |   |   |- Guid:730DCB934B469C1FE5EE11B6DB3F4313 BaseClass: NativeClass:/Script/Landscape.LandscapeStreamingProxy Name:LandscapeStreamingProxy_4Z6FJDTUSPCSVRMWCI92HWTVS_126_0_3_0 Label:LandscapeStreamingProxy_0_3_0 SpatiallyLoaded:1 Bounds:IsValid=true, Min=(X=-25200.000 Y=12600.000 Z=100.000), Max=(X=-12600.000 Y=25200.000 Z=189.844) RuntimeGrid:None EditorOnly:0 RuntimeOnly:0 HLODRelevant:1 ListedInSceneOutliner:1 IsMainWorldOnly:0
 |   |   |- Guid:78DA23D14A616DD998931DA7136B3218 BaseClass: NativeClass:/Script/Foliage.InstancedFoliageActor Name:InstancedFoliageActor_25600_0_0_0 Label:InstancedFoliageActor_0_0_0 SpatiallyLoaded:1 Bounds:(Editor:IsValid=true, Min=(X=0.000 Y=0.000 Z=0.000), Max=(X=25600.000 Y=25600.000 Z=25600.000) Runtime:IsValid=true, Min=(X=-395.100 Y=91.842 Z=-385.700), Max=(X=24202.609 Y=25666.773 Z=3539.865)) RuntimeGrid:None EditorOnly:0 RuntimeOnly:0 HLODRelevant:0 ListedInSceneOutliner:1 IsMainWorldOnly:0
 |   |   |- Guid:7E266F65462A9608BFBF7CAE5120575E BaseClass: NativeClass:/Script/Engine.DirectionalLight Name:DirectionalLight_0 Label:DirectionalLight SpatiallyLoaded:0 Bounds:IsValid=true, Min=(X=-4398046511104.000 Y=-4398046511104.000 Z=-4398046511104.000), Max=(X=4398046511104.000 Y=4398046511104.000 Z=4398046511104.000) RuntimeGrid:None EditorOnly:0 RuntimeOnly:0 HLODRelevant:0 ListedInSceneOutliner:1 IsMainWorldOnly:0 FolderPath:Lighting FolderGuid:602030AD4CB26C050EF7B98FCA62FBCA
 |   |   |- Guid:861A88E2438CF5BA52FC1B8AEEF759C0 BaseClass: NativeClass:/Script/Engine.StaticMeshActor Name:StaticMeshActor_4 Label:SM_Cube4 SpatiallyLoaded:1 Bounds:IsValid=true, Min=(X=-25310.000 Y=-25220.003 Z=0.000), Max=(X=25315.000 Y=-25120.000 Z=300.000) RuntimeGrid:None EditorOnly:0 RuntimeOnly:0 HLODRelevant:1 ListedInSceneOutliner:1 IsMainWorldOnly:0 FolderPath:Landscape FolderGuid:912F765E4714A1DB296369A3E4390900
 |   |   |- Guid:879E214E493EFA02F72BBEA3A60B9752 BaseClass: NativeClass:/Script/Engine.ExponentialHeightFog Name:ExponentialHeightFog_0 Label:ExponentialHeightFog SpatiallyLoaded:0 Bounds:IsValid=true, Min=(X=-18200.000 Y=-12650.000 Z=-6950.000), Max=(X=-18200.000 Y=-12650.000 Z=-6950.000) RuntimeGrid:None EditorOnly:0 RuntimeOnly:0 HLODRelevant:0 ListedInSceneOutliner:1 IsMainWorldOnly:0 FolderPath:Lighting FolderGuid:602030AD4CB26C050EF7B98FCA62FBCA
 |   |   |- Guid:8B7775E14AE98C5FEB45C0AE42FC3CCB BaseClass: NativeClass:/Script/Landscape.LandscapeSplineActor Name:LandscapeSplineActor_UAID_74563C39229456DC01_1994843616 Label:LandscapeSplineActor SpatiallyLoaded:1 Bounds:IsValid=true, Min=(X=-25461.942 Y=-24162.068 Z=102.499), Max=(X=19801.967 Y=22510.827 Z=1387.348) RuntimeGrid:None EditorOnly:0 RuntimeOnly:0 HLODRelevant:1 ListedInSceneOutliner:1 IsMainWorldOnly:0
 |   |   |- Guid:997E29484E42E497F4BF0AB48B851525 BaseClass: NativeClass:/Script/Engine.SkyAtmosphere Name:SkyAtmosphere_0 Label:SkyAtmosphere SpatiallyLoaded:0 Bounds:IsValid=true, Min=(X=-12600.000 Y=-12600.000 Z=920.000), Max=(X=-12600.000 Y=-12600.000 Z=920.000) RuntimeGrid:None EditorOnly:0 RuntimeOnly:0 HLODRelevant:0 ListedInSceneOutliner:1 IsMainWorldOnly:0 FolderPath:Lighting FolderGuid:602030AD4CB26C050EF7B98FCA62FBCA
 |   |   |- Guid:B101981D45929B5D3D7D6993FBFF5418 BaseClass: NativeClass:/Script/Landscape.LandscapeStreamingProxy Name:LandscapeStreamingProxy_4Z6FJDTUSPCSVRMWCI92HWTVS_126_1_0_0 Label:LandscapeStreamingProxy_1_0_0 SpatiallyLoaded:1 Bounds:IsValid=true, Min=(X=-12600.000 Y=-25200.000 Z=100.000), Max=(X=0.000 Y=-12600.000 Z=189.844) RuntimeGrid:None EditorOnly:0 RuntimeOnly:0 HLODRelevant:1 ListedInSceneOutliner:1 IsMainWorldOnly:0
 |   |   |- Guid:B8AE12014E1EEC2848707E90E7D41DB4 BaseClass: NativeClass:/Script/Landscape.LandscapeStreamingProxy Name:LandscapeStreamingProxy_4Z6FJDTUSPCSVRMWCI92HWTVS_126_3_3_0 Label:LandscapeStreamingProxy_3_3_0 SpatiallyLoaded:1 Bounds:IsValid=true, Min=(X=12600.000 Y=12600.000 Z=0.000), Max=(X=25200.000 Y=25200.000 Z=200.000) RuntimeGrid:None EditorOnly:0 RuntimeOnly:0 HLODRelevant:1 ListedInSceneOutliner:1 IsMainWorldOnly:0
 |   |   |- Guid:C58049774387C7D8DC097097D09BB93C BaseClass: NativeClass:/Script/Landscape.LandscapeStreamingProxy Name:LandscapeStreamingProxy_4Z6FJDTUSPCSVRMWCI92HWTVS_126_1_2_0 Label:LandscapeStreamingProxy_1_2_0 SpatiallyLoaded:1 Bounds:IsValid=true, Min=(X=-12600.000 Y=0.000 Z=100.000), Max=(X=0.000 Y=12600.000 Z=189.844) RuntimeGrid:None EditorOnly:0 RuntimeOnly:0 HLODRelevant:1 ListedInSceneOutliner:1 IsMainWorldOnly:0
 |   |   |- Guid:D9E3C71F48EA6D031A3D1084AB9C5CA6 BaseClass: NativeClass:/Script/Landscape.LandscapeStreamingProxy Name:LandscapeStreamingProxy_4Z6FJDTUSPCSVRMWCI92HWTVS_126_0_1_0 Label:LandscapeStreamingProxy_0_1_0 SpatiallyLoaded:1 Bounds:IsValid=true, Min=(X=-25200.000 Y=-12600.000 Z=100.000), Max=(X=-12600.000 Y=0.000 Z=189.844) RuntimeGrid:None EditorOnly:0 RuntimeOnly:0 HLODRelevant:1 ListedInSceneOutliner:1 IsMainWorldOnly:0
 |   |   |- Guid:DF55B95B4DA34A0BD7C40197611EDF5E BaseClass: NativeClass:/Script/Landscape.LandscapeStreamingProxy Name:LandscapeStreamingProxy_4Z6FJDTUSPCSVRMWCI92HWTVS_126_3_2_0 Label:LandscapeStreamingProxy_3_2_0 SpatiallyLoaded:1 Bounds:IsValid=true, Min=(X=12600.000 Y=0.000 Z=0.000), Max=(X=25200.000 Y=12600.000 Z=200.000) RuntimeGrid:None EditorOnly:0 RuntimeOnly:0 HLODRelevant:1 ListedInSceneOutliner:1 IsMainWorldOnly:0
 |   |   |- Guid:E4B07730489B51F56672BE8169FA9172 BaseClass: NativeClass:/Script/Landscape.Landscape Name:Landscape_UAID_74563C39229456DC01_1871111615 Label:Landscape SpatiallyLoaded:0 Bounds:IsValid=true, Min=(X=-25200.000 Y=-25200.000 Z=100.000), Max=(X=-25200.000 Y=-25200.000 Z=100.000) RuntimeGrid:None EditorOnly:0 RuntimeOnly:0 HLODRelevant:0 ListedInSceneOutliner:1 IsMainWorldOnly:0 FolderPath:Landscape FolderGuid:912F765E4714A1DB296369A3E4390900
 |   |   |- Guid:E95120274C7D2704A6B0DA9224A2C686 BaseClass: NativeClass:/Script/Engine.VolumetricCloud Name:VolumetricCloud_0 Label:VolumetricCloud SpatiallyLoaded:0 Bounds:IsValid=true, Min=(X=-12600.000 Y=-12600.000 Z=720.000), Max=(X=-12600.000 Y=-12600.000 Z=720.000) RuntimeGrid:None EditorOnly:0 RuntimeOnly:0 HLODRelevant:0 ListedInSceneOutliner:1 IsMainWorldOnly:0 FolderPath:Lighting FolderGuid:602030AD4CB26C050EF7B98FCA62FBCA
 |   |   |- Guid:EA2A482643A1B1D9F5D21DA0FCA7B9C3 BaseClass: NativeClass:/Script/Foliage.InstancedFoliageActor Name:InstancedFoliageActor_25600_-1_0_0 Label:InstancedFoliageActor_-1_0_0 SpatiallyLoaded:1 Bounds:(Editor:IsValid=true, Min=(X=-25600.000 Y=0.000 Z=0.000), Max=(X=0.000 Y=25600.000 Z=25600.000) Runtime:IsValid=true, Min=(X=-25966.068 Y=-426.653 Z=-553.361), Max=(X=593.047 Y=25132.000 Z=3895.122)) RuntimeGrid:None EditorOnly:0 RuntimeOnly:0 HLODRelevant:0 ListedInSceneOutliner:1 IsMainWorldOnly:0
 |   |   |- Guid:EE70CACA4594CEAF46C3B08B01CF248D BaseClass: NativeClass:/Script/Landscape.LandscapeStreamingProxy Name:LandscapeStreamingProxy_4Z6FJDTUSPCSVRMWCI92HWTVS_126_2_3_0 Label:LandscapeStreamingProxy_2_3_0 SpatiallyLoaded:1 Bounds:IsValid=true, Min=(X=0.000 Y=12600.000 Z=100.000), Max=(X=12600.000 Y=25200.000 Z=189.844) RuntimeGrid:None EditorOnly:0 RuntimeOnly:0 HLODRelevant:1 ListedInSceneOutliner:1 IsMainWorldOnly:0
 |   |   |- Guid:F1E192E34AFC73D4F62310B9F8F339C8 BaseClass: NativeClass:/Script/Engine.StaticMeshActor Name:StaticMeshActor_6 Label:SM_Cube7 SpatiallyLoaded:1 Bounds:IsValid=true, Min=(X=-25190.006 Y=-25255.001 Z=0.000), Max=(X=-25090.001 Y=25219.999 Z=300.000) RuntimeGrid:None EditorOnly:0 RuntimeOnly:0 HLODRelevant:1 ListedInSceneOutliner:1 IsMainWorldOnly:0 FolderPath:Landscape FolderGuid:912F765E4714A1DB296369A3E4390900
 |   |   |- Guid:F381EB0C4127403D4C8AC89649D08F7B BaseClass: NativeClass:/Script/Engine.StaticMeshActor Name:StaticMeshActor_5 Label:SM_Cube6 SpatiallyLoaded:1 Bounds:IsValid=true, Min=(X=-25250.001 Y=25120.001 Z=0.000), Max=(X=25149.999 Y=25220.005 Z=300.000) RuntimeGrid:None EditorOnly:0 RuntimeOnly:0 HLODRelevant:1 ListedInSceneOutliner:1 IsMainWorldOnly:0 FolderPath:Landscape FolderGuid:912F765E4714A1DB296369A3E4390900
 |   |   |- Guid:F48FCCFA437E461EE9541F88B42E6573 BaseClass: NativeClass:/Script/Landscape.LandscapeStreamingProxy Name:LandscapeStreamingProxy_4Z6FJDTUSPCSVRMWCI92HWTVS_126_3_0_0 Label:LandscapeStreamingProxy_3_0_0 SpatiallyLoaded:1 Bounds:IsValid=true, Min=(X=12600.000 Y=-25200.000 Z=0.000), Max=(X=25200.000 Y=-12600.000 Z=200.000) RuntimeGrid:None EditorOnly:0 RuntimeOnly:0 HLODRelevant:1 ListedInSceneOutliner:1 IsMainWorldOnly:0
 |   |   |- Guid:FFD6822E48367917F35F609E7A4720F4 BaseClass: NativeClass:/Script/Landscape.LandscapeStreamingProxy Name:LandscapeStreamingProxy_4Z6FJDTUSPCSVRMWCI92HWTVS_126_3_1_0 Label:LandscapeStreamingProxy_3_1_0 SpatiallyLoaded:1 Bounds:IsValid=true, Min=(X=12600.000 Y=-12600.000 Z=0.000), Max=(X=25200.000 Y=0.000 Z=200.000) RuntimeGrid:None EditorOnly:0 RuntimeOnly:0 HLODRelevant:1 ListedInSceneOutliner:1 IsMainWorldOnly:0
 |   |- [+] Clusters:
 |   |   |- [+] [  0]
 |   |   |   |- Guid:0CA3C4804E663EE4D9DCF1B297DEB35E BaseClass: NativeClass:/Script/Landscape.LandscapeStreamingProxy Name:LandscapeStreamingProxy_4Z6FJDTUSPCSVRMWCI92HWTVS_126_2_1_0 Label:LandscapeStreamingProxy_2_1_0 SpatiallyLoaded:1 Bounds:IsValid=true, Min=(X=0.000 Y=-12600.000 Z=100.000), Max=(X=12600.000 Y=0.000 Z=189.844) RuntimeGrid:None EditorOnly:0 RuntimeOnly:0 HLODRelevant:1 ListedInSceneOutliner:1 IsMainWorldOnly:0
 |   |   |- [+] [  1]
 |   |   |   |- Guid:175972DF406CEE96840712907646EF6D BaseClass: NativeClass:/Script/Engine.WorldDataLayers Name:WorldDataLayers Label:WorldDataLayers-1 SpatiallyLoaded:0 Bounds:Invalid RuntimeGrid:None EditorOnly:0 RuntimeOnly:0 HLODRelevant:0 ListedInSceneOutliner:1 IsMainWorldOnly:1
 |   |   |- [+] [  2]
 |   |   |   |- Guid:21FE67D14BF307735EC29F910BDB4209 BaseClass: NativeClass:/Script/Landscape.LandscapeStreamingProxy Name:LandscapeStreamingProxy_4Z6FJDTUSPCSVRMWCI92HWTVS_126_2_0_0 Label:LandscapeStreamingProxy_2_0_0 SpatiallyLoaded:1 Bounds:IsValid=true, Min=(X=0.000 Y=-25200.000 Z=100.000), Max=(X=12600.000 Y=-12600.000 Z=189.844) RuntimeGrid:None EditorOnly:0 RuntimeOnly:0 HLODRelevant:1 ListedInSceneOutliner:1 IsMainWorldOnly:0
 |   |   |- [+] [  3]
 |   |   |   |- Guid:24C28FEC42C369818E361EA3BC7F76D1 BaseClass: NativeClass:/Script/Engine.StaticMeshActor Name:StaticMeshActor_0 Label:SM_Cube5 SpatiallyLoaded:1 Bounds:IsValid=true, Min=(X=25010.000 Y=-25130.000 Z=0.000), Max=(X=25110.004 Y=25320.000 Z=300.000) RuntimeGrid:None EditorOnly:0 RuntimeOnly:0 HLODRelevant:1 ListedInSceneOutliner:1 IsMainWorldOnly:0 FolderPath:Landscape FolderGuid:912F765E4714A1DB296369A3E4390900
 |   |   |- [+] [  4]
 |   |   |   |- Guid:2E39B54E4C98A1875F539A8D4F15FE8B BaseClass: NativeClass:/Script/Landscape.LandscapeStreamingProxy Name:LandscapeStreamingProxy_4Z6FJDTUSPCSVRMWCI92HWTVS_126_1_3_0 Label:LandscapeStreamingProxy_1_3_0 SpatiallyLoaded:1 Bounds:IsValid=true, Min=(X=-12600.000 Y=12600.000 Z=100.000), Max=(X=0.000 Y=25200.000 Z=189.844) RuntimeGrid:None EditorOnly:0 RuntimeOnly:0 HLODRelevant:1 ListedInSceneOutliner:1 IsMainWorldOnly:0
 |   |   |- [+] [  5]
 |   |   |   |- Guid:3517D5F34F64FE2EBCEFDDAF26899A31 BaseClass: NativeClass:/Script/Landscape.LandscapeStreamingProxy Name:LandscapeStreamingProxy_4Z6FJDTUSPCSVRMWCI92HWTVS_126_0_0_0 Label:LandscapeStreamingProxy_0_0_0 SpatiallyLoaded:1 Bounds:IsValid=true, Min=(X=-25200.000 Y=-25200.000 Z=0.000), Max=(X=-12600.000 Y=-12600.000 Z=200.000) RuntimeGrid:None EditorOnly:0 RuntimeOnly:0 HLODRelevant:1 ListedInSceneOutliner:1 IsMainWorldOnly:0
 |   |   |- [+] [  6]
 |   |   |   |- Guid:3BD6BFE7465A6B75AD614BBB5179AD8A BaseClass:/Game/Goal/TCPConnection.TCPConnection_C NativeClass:/Script/TcpSocketPlugin.TcpSocketConnection Name:TCPConnection_C_UAID_4CCC6A665BAEA1D801_2027182591 Label:TCPConnection SpatiallyLoaded:1 Bounds:IsValid=true, Min=(X=1050.000 Y=-7330.000 Z=0.000), Max=(X=1050.000 Y=-7330.000 Z=0.000) RuntimeGrid:None EditorOnly:0 RuntimeOnly:0 HLODRelevant:0 ListedInSceneOutliner:1 IsMainWorldOnly:0
 |   |   |- [+] [  7]
 |   |   |   |- Guid:3C084E8A4A77205EE635E88CF1A29E3F BaseClass: NativeClass:/Script/Foliage.InstancedFoliageActor Name:InstancedFoliageActor_25600_0_-1_0 Label:InstancedFoliageActor_0_-1_0 SpatiallyLoaded:1 Bounds:(Editor:IsValid=true, Min=(X=0.000 Y=-25600.000 Z=0.000), Max=(X=25600.000 Y=0.000 Z=25600.000) Runtime:IsValid=true, Min=(X=-811.840 Y=-25226.444 Z=-601.002), Max=(X=26219.287 Y=1240.178 Z=3903.753)) RuntimeGrid:None EditorOnly:0 RuntimeOnly:0 HLODRelevant:0 ListedInSceneOutliner:1 IsMainWorldOnly:0
 |   |   |- [+] [  8]
 |   |   |   |- Guid:3E83772A429F7521640AD2BF516668E3 BaseClass: NativeClass:/Script/Landscape.LandscapeStreamingProxy Name:LandscapeStreamingProxy_4Z6FJDTUSPCSVRMWCI92HWTVS_126_0_2_0 Label:LandscapeStreamingProxy_0_2_0 SpatiallyLoaded:1 Bounds:IsValid=true, Min=(X=-25200.000 Y=0.000 Z=100.000), Max=(X=-12600.000 Y=12600.000 Z=189.844) RuntimeGrid:None EditorOnly:0 RuntimeOnly:0 HLODRelevant:1 ListedInSceneOutliner:1 IsMainWorldOnly:0
 |   |   |- [+] [  9]
 |   |   |   |- Guid:4AEAC28441C79668D0AC2BB2EF6EE6D4 BaseClass: NativeClass:/Script/Landscape.LandscapeStreamingProxy Name:LandscapeStreamingProxy_4Z6FJDTUSPCSVRMWCI92HWTVS_126_1_1_0 Label:LandscapeStreamingProxy_1_1_0 SpatiallyLoaded:1 Bounds:IsValid=true, Min=(X=-12600.000 Y=-12600.000 Z=100.000), Max=(X=0.000 Y=0.000 Z=189.844) RuntimeGrid:None EditorOnly:0 RuntimeOnly:0 HLODRelevant:1 ListedInSceneOutliner:1 IsMainWorldOnly:0
 |   |   |- [+] [ 10]
 |   |   |   |- Guid:4C1B599C4DC428D8656CCB868D7ACF9E BaseClass: NativeClass:/Script/Engine.StaticMeshActor Name:StaticMeshActor_UAID_A4AE111137DC5DFB00_1630210247 Label:SM_SkySphere SpatiallyLoaded:1 Bounds:IsValid=true, Min=(X=-1638400.000 Y=-1638400.000 Z=-1637960.000), Max=(X=1638400.000 Y=1638400.000 Z=1638840.000) RuntimeGrid:None EditorOnly:0 RuntimeOnly:0 HLODRelevant:1 ListedInSceneOutliner:1 IsMainWorldOnly:0 FolderPath:Lighting FolderGuid:602030AD4CB26C050EF7B98FCA62FBCA
 |   |   |- [+] [ 11]
 |   |   |   |- Guid:53E04F8443AFF075AEABADA2F52ECB61 BaseClass: NativeClass:/Script/Foliage.InstancedFoliageActor Name:InstancedFoliageActor_25600_-1_-1_0 Label:InstancedFoliageActor_-1_-1_0 SpatiallyLoaded:1 Bounds:(Editor:IsValid=true, Min=(X=-25600.000 Y=-25600.000 Z=0.000), Max=(X=0.000 Y=0.000 Z=25600.000) Runtime:IsValid=true, Min=(X=-25656.952 Y=-25522.561 Z=-594.608), Max=(X=171.592 Y=1001.275 Z=3779.233)) RuntimeGrid:None EditorOnly:0 RuntimeOnly:0 HLODRelevant:0 ListedInSceneOutliner:1 IsMainWorldOnly:0
 |   |   |- [+] [ 12]
 |   |   |   |- Guid:5A194A174178EB630121408BA4EC60C5 BaseClass: NativeClass:/Script/Landscape.LandscapeStreamingProxy Name:LandscapeStreamingProxy_4Z6FJDTUSPCSVRMWCI92HWTVS_126_2_2_0 Label:LandscapeStreamingProxy_2_2_0 SpatiallyLoaded:1 Bounds:IsValid=true, Min=(X=0.000 Y=0.000 Z=100.000), Max=(X=12600.000 Y=12600.000 Z=189.844) RuntimeGrid:None EditorOnly:0 RuntimeOnly:0 HLODRelevant:1 ListedInSceneOutliner:1 IsMainWorldOnly:0
 |   |   |- [+] [ 13]
 |   |   |   |- Guid:607378B646A64F7C81F01CA67E29118C BaseClass: NativeClass:/Script/Engine.PostProcessVolume Name:PostProcessVolume_0 Label:PostProcessVolume SpatiallyLoaded:0 Bounds:IsValid=true, Min=(X=-12600.000 Y=-12600.000 Z=300.000), Max=(X=-12400.000 Y=-12400.000 Z=500.000) RuntimeGrid:None EditorOnly:0 RuntimeOnly:0 HLODRelevant:0 ListedInSceneOutliner:1 IsMainWorldOnly:0 FolderPath:Lighting FolderGuid:602030AD4CB26C050EF7B98FCA62FBCA
 |   |   |- [+] [ 14]
 |   |   |   |- Guid:682FD3D34BDD37528BB2908FE832E44D BaseClass: NativeClass:/Script/Engine.PlayerStart Name:PlayerStart_1 Label:PlayerStart SpatiallyLoaded:0 Bounds:IsValid=true, Min=(X=-19876.140 Y=-9383.559 Z=246.021), Max=(X=-19743.860 Y=-9276.441 Z=365.848) RuntimeGrid:None EditorOnly:0 RuntimeOnly:0 HLODRelevant:0 ListedInSceneOutliner:1 IsMainWorldOnly:0
 |   |   |- [+] [ 15]
 |   |   |   |- Guid:6B8EC0724678CE0EDE1F5B8EAFB6B115 BaseClass: NativeClass:/Script/Engine.SkyLight Name:SkyLight_1 Label:SkyLight SpatiallyLoaded:0 Bounds:IsValid=true, Min=(X=-12600.000 Y=-12600.000 Z=720.000), Max=(X=-12600.000 Y=-12600.000 Z=720.000) RuntimeGrid:None EditorOnly:0 RuntimeOnly:0 HLODRelevant:0 ListedInSceneOutliner:1 IsMainWorldOnly:0 FolderPath:Lighting FolderGuid:602030AD4CB26C050EF7B98FCA62FBCA
 |   |   |- [+] [ 16]
 |   |   |   |- Guid:730DCB934B469C1FE5EE11B6DB3F4313 BaseClass: NativeClass:/Script/Landscape.LandscapeStreamingProxy Name:LandscapeStreamingProxy_4Z6FJDTUSPCSVRMWCI92HWTVS_126_0_3_0 Label:LandscapeStreamingProxy_0_3_0 SpatiallyLoaded:1 Bounds:IsValid=true, Min=(X=-25200.000 Y=12600.000 Z=100.000), Max=(X=-12600.000 Y=25200.000 Z=189.844) RuntimeGrid:None EditorOnly:0 RuntimeOnly:0 HLODRelevant:1 ListedInSceneOutliner:1 IsMainWorldOnly:0
 |   |   |- [+] [ 17]
 |   |   |   |- Guid:78DA23D14A616DD998931DA7136B3218 BaseClass: NativeClass:/Script/Foliage.InstancedFoliageActor Name:InstancedFoliageActor_25600_0_0_0 Label:InstancedFoliageActor_0_0_0 SpatiallyLoaded:1 Bounds:(Editor:IsValid=true, Min=(X=0.000 Y=0.000 Z=0.000), Max=(X=25600.000 Y=25600.000 Z=25600.000) Runtime:IsValid=true, Min=(X=-395.100 Y=91.842 Z=-385.700), Max=(X=24202.609 Y=25666.773 Z=3539.865)) RuntimeGrid:None EditorOnly:0 RuntimeOnly:0 HLODRelevant:0 ListedInSceneOutliner:1 IsMainWorldOnly:0
 |   |   |- [+] [ 18]
 |   |   |   |- Guid:7E266F65462A9608BFBF7CAE5120575E BaseClass: NativeClass:/Script/Engine.DirectionalLight Name:DirectionalLight_0 Label:DirectionalLight SpatiallyLoaded:0 Bounds:IsValid=true, Min=(X=-4398046511104.000 Y=-4398046511104.000 Z=-4398046511104.000), Max=(X=4398046511104.000 Y=4398046511104.000 Z=4398046511104.000) RuntimeGrid:None EditorOnly:0 RuntimeOnly:0 HLODRelevant:0 ListedInSceneOutliner:1 IsMainWorldOnly:0 FolderPath:Lighting FolderGuid:602030AD4CB26C050EF7B98FCA62FBCA
 |   |   |- [+] [ 19]
 |   |   |   |- Guid:861A88E2438CF5BA52FC1B8AEEF759C0 BaseClass: NativeClass:/Script/Engine.StaticMeshActor Name:StaticMeshActor_4 Label:SM_Cube4 SpatiallyLoaded:1 Bounds:IsValid=true, Min=(X=-25310.000 Y=-25220.003 Z=0.000), Max=(X=25315.000 Y=-25120.000 Z=300.000) RuntimeGrid:None EditorOnly:0 RuntimeOnly:0 HLODRelevant:1 ListedInSceneOutliner:1 IsMainWorldOnly:0 FolderPath:Landscape FolderGuid:912F765E4714A1DB296369A3E4390900
 |   |   |- [+] [ 20]
 |   |   |   |- Guid:879E214E493EFA02F72BBEA3A60B9752 BaseClass: NativeClass:/Script/Engine.ExponentialHeightFog Name:ExponentialHeightFog_0 Label:ExponentialHeightFog SpatiallyLoaded:0 Bounds:IsValid=true, Min=(X=-18200.000 Y=-12650.000 Z=-6950.000), Max=(X=-18200.000 Y=-12650.000 Z=-6950.000) RuntimeGrid:None EditorOnly:0 RuntimeOnly:0 HLODRelevant:0 ListedInSceneOutliner:1 IsMainWorldOnly:0 FolderPath:Lighting FolderGuid:602030AD4CB26C050EF7B98FCA62FBCA
 |   |   |- [+] [ 21]
 |   |   |   |- Guid:8B7775E14AE98C5FEB45C0AE42FC3CCB BaseClass: NativeClass:/Script/Landscape.LandscapeSplineActor Name:LandscapeSplineActor_UAID_74563C39229456DC01_1994843616 Label:LandscapeSplineActor SpatiallyLoaded:1 Bounds:IsValid=true, Min=(X=-25461.942 Y=-24162.068 Z=102.499), Max=(X=19801.967 Y=22510.827 Z=1387.348) RuntimeGrid:None EditorOnly:0 RuntimeOnly:0 HLODRelevant:1 ListedInSceneOutliner:1 IsMainWorldOnly:0
 |   |   |- [+] [ 22]
 |   |   |   |- Guid:997E29484E42E497F4BF0AB48B851525 BaseClass: NativeClass:/Script/Engine.SkyAtmosphere Name:SkyAtmosphere_0 Label:SkyAtmosphere SpatiallyLoaded:0 Bounds:IsValid=true, Min=(X=-12600.000 Y=-12600.000 Z=920.000), Max=(X=-12600.000 Y=-12600.000 Z=920.000) RuntimeGrid:None EditorOnly:0 RuntimeOnly:0 HLODRelevant:0 ListedInSceneOutliner:1 IsMainWorldOnly:0 FolderPath:Lighting FolderGuid:602030AD4CB26C050EF7B98FCA62FBCA
 |   |   |- [+] [ 23]
 |   |   |   |- Guid:B101981D45929B5D3D7D6993FBFF5418 BaseClass: NativeClass:/Script/Landscape.LandscapeStreamingProxy Name:LandscapeStreamingProxy_4Z6FJDTUSPCSVRMWCI92HWTVS_126_1_0_0 Label:LandscapeStreamingProxy_1_0_0 SpatiallyLoaded:1 Bounds:IsValid=true, Min=(X=-12600.000 Y=-25200.000 Z=100.000), Max=(X=0.000 Y=-12600.000 Z=189.844) RuntimeGrid:None EditorOnly:0 RuntimeOnly:0 HLODRelevant:1 ListedInSceneOutliner:1 IsMainWorldOnly:0
 |   |   |- [+] [ 24]
 |   |   |   |- Guid:B8AE12014E1EEC2848707E90E7D41DB4 BaseClass: NativeClass:/Script/Landscape.LandscapeStreamingProxy Name:LandscapeStreamingProxy_4Z6FJDTUSPCSVRMWCI92HWTVS_126_3_3_0 Label:LandscapeStreamingProxy_3_3_0 SpatiallyLoaded:1 Bounds:IsValid=true, Min=(X=12600.000 Y=12600.000 Z=0.000), Max=(X=25200.000 Y=25200.000 Z=200.000) RuntimeGrid:None EditorOnly:0 RuntimeOnly:0 HLODRelevant:1 ListedInSceneOutliner:1 IsMainWorldOnly:0
 |   |   |- [+] [ 25]
 |   |   |   |- Guid:C58049774387C7D8DC097097D09BB93C BaseClass: NativeClass:/Script/Landscape.LandscapeStreamingProxy Name:LandscapeStreamingProxy_4Z6FJDTUSPCSVRMWCI92HWTVS_126_1_2_0 Label:LandscapeStreamingProxy_1_2_0 SpatiallyLoaded:1 Bounds:IsValid=true, Min=(X=-12600.000 Y=0.000 Z=100.000), Max=(X=0.000 Y=12600.000 Z=189.844) RuntimeGrid:None EditorOnly:0 RuntimeOnly:0 HLODRelevant:1 ListedInSceneOutliner:1 IsMainWorldOnly:0
 |   |   |- [+] [ 26]
 |   |   |   |- Guid:D9E3C71F48EA6D031A3D1084AB9C5CA6 BaseClass: NativeClass:/Script/Landscape.LandscapeStreamingProxy Name:LandscapeStreamingProxy_4Z6FJDTUSPCSVRMWCI92HWTVS_126_0_1_0 Label:LandscapeStreamingProxy_0_1_0 SpatiallyLoaded:1 Bounds:IsValid=true, Min=(X=-25200.000 Y=-12600.000 Z=100.000), Max=(X=-12600.000 Y=0.000 Z=189.844) RuntimeGrid:None EditorOnly:0 RuntimeOnly:0 HLODRelevant:1 ListedInSceneOutliner:1 IsMainWorldOnly:0
 |   |   |- [+] [ 27]
 |   |   |   |- Guid:DF55B95B4DA34A0BD7C40197611EDF5E BaseClass: NativeClass:/Script/Landscape.LandscapeStreamingProxy Name:LandscapeStreamingProxy_4Z6FJDTUSPCSVRMWCI92HWTVS_126_3_2_0 Label:LandscapeStreamingProxy_3_2_0 SpatiallyLoaded:1 Bounds:IsValid=true, Min=(X=12600.000 Y=0.000 Z=0.000), Max=(X=25200.000 Y=12600.000 Z=200.000) RuntimeGrid:None EditorOnly:0 RuntimeOnly:0 HLODRelevant:1 ListedInSceneOutliner:1 IsMainWorldOnly:0
 |   |   |- [+] [ 28]
 |   |   |   |- Guid:E4B07730489B51F56672BE8169FA9172 BaseClass: NativeClass:/Script/Landscape.Landscape Name:Landscape_UAID_74563C39229456DC01_1871111615 Label:Landscape SpatiallyLoaded:0 Bounds:IsValid=true, Min=(X=-25200.000 Y=-25200.000 Z=100.000), Max=(X=-25200.000 Y=-25200.000 Z=100.000) RuntimeGrid:None EditorOnly:0 RuntimeOnly:0 HLODRelevant:0 ListedInSceneOutliner:1 IsMainWorldOnly:0 FolderPath:Landscape FolderGuid:912F765E4714A1DB296369A3E4390900
 |   |   |- [+] [ 29]
 |   |   |   |- Guid:E95120274C7D2704A6B0DA9224A2C686 BaseClass: NativeClass:/Script/Engine.VolumetricCloud Name:VolumetricCloud_0 Label:VolumetricCloud SpatiallyLoaded:0 Bounds:IsValid=true, Min=(X=-12600.000 Y=-12600.000 Z=720.000), Max=(X=-12600.000 Y=-12600.000 Z=720.000) RuntimeGrid:None EditorOnly:0 RuntimeOnly:0 HLODRelevant:0 ListedInSceneOutliner:1 IsMainWorldOnly:0 FolderPath:Lighting FolderGuid:602030AD4CB26C050EF7B98FCA62FBCA
 |   |   |- [+] [ 30]
 |   |   |   |- Guid:EA2A482643A1B1D9F5D21DA0FCA7B9C3 BaseClass: NativeClass:/Script/Foliage.InstancedFoliageActor Name:InstancedFoliageActor_25600_-1_0_0 Label:InstancedFoliageActor_-1_0_0 SpatiallyLoaded:1 Bounds:(Editor:IsValid=true, Min=(X=-25600.000 Y=0.000 Z=0.000), Max=(X=0.000 Y=25600.000 Z=25600.000) Runtime:IsValid=true, Min=(X=-25966.068 Y=-426.653 Z=-553.361), Max=(X=593.047 Y=25132.000 Z=3895.122)) RuntimeGrid:None EditorOnly:0 RuntimeOnly:0 HLODRelevant:0 ListedInSceneOutliner:1 IsMainWorldOnly:0
 |   |   |- [+] [ 31]
 |   |   |   |- Guid:EE70CACA4594CEAF46C3B08B01CF248D BaseClass: NativeClass:/Script/Landscape.LandscapeStreamingProxy Name:LandscapeStreamingProxy_4Z6FJDTUSPCSVRMWCI92HWTVS_126_2_3_0 Label:LandscapeStreamingProxy_2_3_0 SpatiallyLoaded:1 Bounds:IsValid=true, Min=(X=0.000 Y=12600.000 Z=100.000), Max=(X=12600.000 Y=25200.000 Z=189.844) RuntimeGrid:None EditorOnly:0 RuntimeOnly:0 HLODRelevant:1 ListedInSceneOutliner:1 IsMainWorldOnly:0
 |   |   |- [+] [ 32]
 |   |   |   |- Guid:F1E192E34AFC73D4F62310B9F8F339C8 BaseClass: NativeClass:/Script/Engine.StaticMeshActor Name:StaticMeshActor_6 Label:SM_Cube7 SpatiallyLoaded:1 Bounds:IsValid=true, Min=(X=-25190.006 Y=-25255.001 Z=0.000), Max=(X=-25090.001 Y=25219.999 Z=300.000) RuntimeGrid:None EditorOnly:0 RuntimeOnly:0 HLODRelevant:1 ListedInSceneOutliner:1 IsMainWorldOnly:0 FolderPath:Landscape FolderGuid:912F765E4714A1DB296369A3E4390900
 |   |   |- [+] [ 33]
 |   |   |   |- Guid:F381EB0C4127403D4C8AC89649D08F7B BaseClass: NativeClass:/Script/Engine.StaticMeshActor Name:StaticMeshActor_5 Label:SM_Cube6 SpatiallyLoaded:1 Bounds:IsValid=true, Min=(X=-25250.001 Y=25120.001 Z=0.000), Max=(X=25149.999 Y=25220.005 Z=300.000) RuntimeGrid:None EditorOnly:0 RuntimeOnly:0 HLODRelevant:1 ListedInSceneOutliner:1 IsMainWorldOnly:0 FolderPath:Landscape FolderGuid:912F765E4714A1DB296369A3E4390900
 |   |   |- [+] [ 34]
 |   |   |   |- Guid:F48FCCFA437E461EE9541F88B42E6573 BaseClass: NativeClass:/Script/Landscape.LandscapeStreamingProxy Name:LandscapeStreamingProxy_4Z6FJDTUSPCSVRMWCI92HWTVS_126_3_0_0 Label:LandscapeStreamingProxy_3_0_0 SpatiallyLoaded:1 Bounds:IsValid=true, Min=(X=12600.000 Y=-25200.000 Z=0.000), Max=(X=25200.000 Y=-12600.000 Z=200.000) RuntimeGrid:None EditorOnly:0 RuntimeOnly:0 HLODRelevant:1 ListedInSceneOutliner:1 IsMainWorldOnly:0
 |   |   |- [+] [ 35]
 |   |   |   |- Guid:FFD6822E48367917F35F609E7A4720F4 BaseClass: NativeClass:/Script/Landscape.LandscapeStreamingProxy Name:LandscapeStreamingProxy_4Z6FJDTUSPCSVRMWCI92HWTVS_126_3_1_0 Label:LandscapeStreamingProxy_3_1_0 SpatiallyLoaded:1 Bounds:IsValid=true, Min=(X=12600.000 Y=-12600.000 Z=0.000), Max=(X=25200.000 Y=0.000 Z=200.000) RuntimeGrid:None EditorOnly:0 RuntimeOnly:0 HLODRelevant:1 ListedInSceneOutliner:1 IsMainWorldOnly:0
 |- ContainerInstances:
 |- [+] MainContainer:
 |   |-        ID: 00000000000000000000000000000000
 |   |-  ParentID: 00000000000000000000000000000000
 |   |-    Bounds: IsValid=false, Min=(X=0.000 Y=0.000 Z=0.000), Max=(X=0.000 Y=0.000 Z=0.000)
 |   |- Transform: 0.000000,0.000000,0.000000|0.000000,0.000000,-0.000000|1.000000,1.000000,1.000000
 |   |- Container: /Game/VehicleTemplate/Maps/AiMap
----------------------------------------------------------------------------------------------------------------
AiMap - Persistent Level
----------------------------------------------------------------------------------------------------------------
[+] Content of AiMap Persistent Level
 |- Always loaded Actor Count: 41 
 |- Actor Path: /Game/VehicleTemplate/Maps/AiMap.AiMap:PersistentLevel.AiMap_C_1
 |- Actor Package: /Game/VehicleTemplate/Maps/AiMap
 |- Actor Path: /Game/VehicleTemplate/Maps/AiMap.AiMap:PersistentLevel.Brush_1
 |- Actor Package: /Game/VehicleTemplate/Maps/AiMap
 |- Actor Path: /Game/VehicleTemplate/Maps/AiMap.AiMap:PersistentLevel.DefaultPhysicsVolume_0
 |- Actor Package: /Game/VehicleTemplate/Maps/AiMap
 |- Actor Path: /Game/VehicleTemplate/Maps/AiMap.AiMap:PersistentLevel.DirectionalLight_0
 |- Actor Package: /Game/__ExternalActors__/VehicleTemplate/Maps/AiMap/3/MJ/GODRMXZOYK6S6JLVXNEINM
 |- Actor Path: /Game/VehicleTemplate/Maps/AiMap.AiMap:PersistentLevel.ExponentialHeightFog_0
 |- Actor Package: /Game/__ExternalActors__/VehicleTemplate/Maps/AiMap/F/3U/4FQZFMQAM87YAA5YKT3C2T
 |- Actor Path: /Game/VehicleTemplate/Maps/AiMap.AiMap:PersistentLevel.InstancedFoliageActor_25600_-1_-1_0
 |- Actor Package: /Game/__ExternalActors__/VehicleTemplate/Maps/AiMap/D/6M/3FXEACQ3A8VV4VDT5Y178V
 |- Actor Path: /Game/VehicleTemplate/Maps/AiMap.AiMap:PersistentLevel.InstancedFoliageActor_25600_-1_0_0
 |- Actor Package: /Game/__ExternalActors__/VehicleTemplate/Maps/AiMap/E/ZU/IIANXQEBQEYASQZRTBWQ5M
 |- Actor Path: /Game/VehicleTemplate/Maps/AiMap.AiMap:PersistentLevel.InstancedFoliageActor_25600_0_-1_0
 |- Actor Package: /Game/__ExternalActors__/VehicleTemplate/Maps/AiMap/4/UL/N27XAFJRB11U44US13DF3V
 |- Actor Path: /Game/VehicleTemplate/Maps/AiMap.AiMap:PersistentLevel.InstancedFoliageActor_25600_0_0_0
 |- Actor Package: /Game/__ExternalActors__/VehicleTemplate/Maps/AiMap/5/N7/ATAQWWAHQGK6W3FOJM3QXM
 |- Actor Path: /Game/VehicleTemplate/Maps/AiMap.AiMap:PersistentLevel.Landscape_UAID_74563C39229456DC01_1871111615
 |- Actor Package: /Game/__ExternalActors__/VehicleTemplate/Maps/AiMap/1/DV/W3TPSGIB717414X06DWTVW
 |- Actor Path: /Game/VehicleTemplate/Maps/AiMap.AiMap:PersistentLevel.LandscapeSplineActor_UAID_74563C39229456DC01_1994843616
 |- Actor Package: /Game/__ExternalActors__/VehicleTemplate/Maps/AiMap/5/N2/QE41RNOL1O3DXMJYNWIZY5
 |- Actor Path: /Game/VehicleTemplate/Maps/AiMap.AiMap:PersistentLevel.LandscapeStreamingProxy_4Z6FJDTUSPCSVRMWCI92HWTVS_126_0_0_0
 |- Actor Package: /Game/__ExternalActors__/VehicleTemplate/Maps/AiMap/1/HR/YD5UV18KXPKQAJFVVJXSRW
 |- Actor Path: /Game/VehicleTemplate/Maps/AiMap.AiMap:PersistentLevel.LandscapeStreamingProxy_4Z6FJDTUSPCSVRMWCI92HWTVS_126_0_1_0
 |- Actor Package: /Game/__ExternalActors__/VehicleTemplate/Maps/AiMap/D/V6/Q8MZ84AO4OMNKR4XNEGLV5
 |- Actor Path: /Game/VehicleTemplate/Maps/AiMap.AiMap:PersistentLevel.LandscapeStreamingProxy_4Z6FJDTUSPCSVRMWCI92HWTVS_126_0_2_0
 |- Actor Package: /Game/__ExternalActors__/VehicleTemplate/Maps/AiMap/5/17/4K5CIMLA2S5VW0LOQ86BO0
 |- Actor Path: /Game/VehicleTemplate/Maps/AiMap.AiMap:PersistentLevel.LandscapeStreamingProxy_4Z6FJDTUSPCSVRMWCI92HWTVS_126_0_3_0
 |- Actor Package: /Game/__ExternalActors__/VehicleTemplate/Maps/AiMap/5/F4/VYJ5GCFZP0M1TJ3G0G1ORA
 |- Actor Path: /Game/VehicleTemplate/Maps/AiMap.AiMap:PersistentLevel.LandscapeStreamingProxy_4Z6FJDTUSPCSVRMWCI92HWTVS_126_1_0_0
 |- Actor Package: /Game/__ExternalActors__/VehicleTemplate/Maps/AiMap/2/7C/182YQ504TBOSGMA4M2LN3B
 |- Actor Path: /Game/VehicleTemplate/Maps/AiMap.AiMap:PersistentLevel.LandscapeStreamingProxy_4Z6FJDTUSPCSVRMWCI92HWTVS_126_1_1_0
 |- Actor Package: /Game/__ExternalActors__/VehicleTemplate/Maps/AiMap/5/7G/AFW2592K27HUQVZ935KRFF
 |- Actor Path: /Game/VehicleTemplate/Maps/AiMap.AiMap:PersistentLevel.LandscapeStreamingProxy_4Z6FJDTUSPCSVRMWCI92HWTVS_126_1_2_0
 |- Actor Package: /Game/__ExternalActors__/VehicleTemplate/Maps/AiMap/A/86/PHS1YGQ6M6WUYJG9REB74I
 |- Actor Path: /Game/VehicleTemplate/Maps/AiMap.AiMap:PersistentLevel.LandscapeStreamingProxy_4Z6FJDTUSPCSVRMWCI92HWTVS_126_1_3_0
 |- Actor Package: /Game/__ExternalActors__/VehicleTemplate/Maps/AiMap/7/YL/OE86Z84W90KS3TJQY3CLTE
 |- Actor Path: /Game/VehicleTemplate/Maps/AiMap.AiMap:PersistentLevel.LandscapeStreamingProxy_4Z6FJDTUSPCSVRMWCI92HWTVS_126_2_0_0
 |- Actor Package: /Game/__ExternalActors__/VehicleTemplate/Maps/AiMap/A/Z4/KND90ES444I7EP6Z7IWOXC
 |- Actor Path: /Game/VehicleTemplate/Maps/AiMap.AiMap:PersistentLevel.LandscapeStreamingProxy_4Z6FJDTUSPCSVRMWCI92HWTVS_126_2_1_0
 |- Actor Package: /Game/__ExternalActors__/VehicleTemplate/Maps/AiMap/A/RW/3OL751232YSSV7PBFR9G6M
 |- Actor Path: /Game/VehicleTemplate/Maps/AiMap.AiMap:PersistentLevel.LandscapeStreamingProxy_4Z6FJDTUSPCSVRMWCI92HWTVS_126_2_2_0
 |- Actor Package: /Game/__ExternalActors__/VehicleTemplate/Maps/AiMap/9/J3/L0B7186EVR1ER465J56QHD
 |- Actor Path: /Game/VehicleTemplate/Maps/AiMap.AiMap:PersistentLevel.LandscapeStreamingProxy_4Z6FJDTUSPCSVRMWCI92HWTVS_126_2_3_0
 |- Actor Package: /Game/__ExternalActors__/VehicleTemplate/Maps/AiMap/0/B7/P8PCZVW3Q1BEPL0CLJC7I6
 |- Actor Path: /Game/VehicleTemplate/Maps/AiMap.AiMap:PersistentLevel.LandscapeStreamingProxy_4Z6FJDTUSPCSVRMWCI92HWTVS_126_3_0_0
 |- Actor Package: /Game/__ExternalActors__/VehicleTemplate/Maps/AiMap/C/WE/EMYGDGZ4EK87NPD82A36XT
 |- Actor Path: /Game/VehicleTemplate/Maps/AiMap.AiMap:PersistentLevel.LandscapeStreamingProxy_4Z6FJDTUSPCSVRMWCI92HWTVS_126_3_1_0
 |- Actor Package: /Game/__ExternalActors__/VehicleTemplate/Maps/AiMap/2/YY/OBK5VXPCD3O3VBMCWHIL68
 |- Actor Path: /Game/VehicleTemplate/Maps/AiMap.AiMap:PersistentLevel.LandscapeStreamingProxy_4Z6FJDTUSPCSVRMWCI92HWTVS_126_3_2_0
 |- Actor Package: /Game/__ExternalActors__/VehicleTemplate/Maps/AiMap/4/0G/CI9841MAKFZDZC04WJ5V3A
 |- Actor Path: /Game/VehicleTemplate/Maps/AiMap.AiMap:PersistentLevel.LandscapeStreamingProxy_4Z6FJDTUSPCSVRMWCI92HWTVS_126_3_3_0
 |- Actor Package: /Game/__ExternalActors__/VehicleTemplate/Maps/AiMap/7/42/C4INKXB2GHJOTA4CXNN6OJ
 |- Actor Path: /Game/VehicleTemplate/Maps/AiMap.AiMap:PersistentLevel.PlayerStart_1
 |- Actor Package: /Game/__ExternalActors__/VehicleTemplate/Maps/AiMap/B/CV/04OJ6CH7WQNQG2W6H6U0ZA
 |- Actor Path: /Game/VehicleTemplate/Maps/AiMap.AiMap:PersistentLevel.PostProcessVolume_0
 |- Actor Package: /Game/__ExternalActors__/VehicleTemplate/Maps/AiMap/1/ME/M6AO7KWPUP28C3O5QPEAUF
 |- Actor Path: /Game/VehicleTemplate/Maps/AiMap.AiMap:PersistentLevel.SkyAtmosphere_0
 |- Actor Package: /Game/__ExternalActors__/VehicleTemplate/Maps/AiMap/1/WN/CW327YEU9FNQ634AX5VV1V
 |- Actor Path: /Game/VehicleTemplate/Maps/AiMap.AiMap:PersistentLevel.SkyLight_1
 |- Actor Package: /Game/__ExternalActors__/VehicleTemplate/Maps/AiMap/3/9E/HVECQ4DDHIEY4X0BFXPCZI
 |- Actor Path: /Game/VehicleTemplate/Maps/AiMap.AiMap:PersistentLevel.StaticMeshActor_0
 |- Actor Package: /Game/__ExternalActors__/VehicleTemplate/Maps/AiMap/A/JD/7UOT372SPUXBOZVZD0HLE2
 |- Actor Path: /Game/VehicleTemplate/Maps/AiMap.AiMap:PersistentLevel.StaticMeshActor_4
 |- Actor Package: /Game/__ExternalActors__/VehicleTemplate/Maps/AiMap/0/YR/02JY0Q55S1QUS6DN0YG0XA
 |- Actor Path: /Game/VehicleTemplate/Maps/AiMap.AiMap:PersistentLevel.StaticMeshActor_5
 |- Actor Package: /Game/__ExternalActors__/VehicleTemplate/Maps/AiMap/A/23/Z3KR4C03KUOLED4DGQ4IG3
 |- Actor Path: /Game/VehicleTemplate/Maps/AiMap.AiMap:PersistentLevel.StaticMeshActor_6
 |- Actor Package: /Game/__ExternalActors__/VehicleTemplate/Maps/AiMap/A/6Q/T8U8FO9THMHUNFMSEX124N
 |- Actor Path: /Game/VehicleTemplate/Maps/AiMap.AiMap:PersistentLevel.StaticMeshActor_UAID_A4AE111137DC5DFB00_1630210247
 |- Actor Package: /Game/__ExternalActors__/VehicleTemplate/Maps/AiMap/C/JS/NUW72G5BU0FE2ADI3AEMCO
 |- Actor Path: /Game/VehicleTemplate/Maps/AiMap.AiMap:PersistentLevel.TCPConnection_C_UAID_4CCC6A665BAEA1D801_2027182591
 |- Actor Package: /Game/__ExternalActors__/VehicleTemplate/Maps/AiMap/1/YO/KXKFR1DK6H9FTMQ3XZNPSI
 |- Actor Path: /Game/VehicleTemplate/Maps/AiMap.AiMap:PersistentLevel.VolumetricCloud_0
 |- Actor Package: /Game/__ExternalActors__/VehicleTemplate/Maps/AiMap/A/OO/LYR1HOE7ODOP34GLZKBPBT
 |- Actor Path: /Game/VehicleTemplate/Maps/AiMap.AiMap:PersistentLevel.WorldDataLayers
 |- Actor Package: /Game/__ExternalActors__/VehicleTemplate/Maps/AiMap/2/AP/1WNCCPZ91SD9W385QJ8DD0
 |- Actor Path: /Game/VehicleTemplate/Maps/AiMap.AiMap:PersistentLevel.WorldPartitionMiniMap_0
 |- Actor Package: /Game/__ExternalActors__/VehicleTemplate/Maps/AiMap/1/D7/P04BW2O48ZRLFHG7AB11DG
 |- Actor Path: /Game/VehicleTemplate/Maps/AiMap.AiMap:PersistentLevel.WorldSettings_1
 |- Actor Package: /Game/VehicleTemplate/Maps/AiMap

----------------------------------------------------------------------------------------------------------------
AiMap - Runtime Spatial Hash - Streaming Grid - MainGrid
----------------------------------------------------------------------------------------------------------------
            Origin: X=0.000 Y=0.000 Z=0.000
         Cell Size: 12800
      World Bounds: IsValid=false, Min=(X=0.000 Y=0.000 Z=0.000), Max=(X=0.000 Y=0.000 Z=0.000)
     Loading Range: 25600.00
Block Slow Loading: No
 ClientOnlyVisible: No
            Origin: X=0.000 Y=0.000 Z=0.000

[+] Grid Levels: 1
 |- Level  0: Cell Count    0 | Cell Size   12800 | Actor Count    0 (0.0%)

[+] Content of Grid Level 0

